Projet Final - Exploration
…
Plus de CO2 en 2021

Code

df_owid |> 
    filter(year == 2021) |> 
    select(country,
           co2) |> 
    arrange(desc(co2))

# A tibble: 260 × 2
   country                          co2
   <chr>                          <dbl>
 1 World                         37124.
 2 Non-OECD (GCP)                24398.
 3 Asia                          21689.
 4 Asia (GCP)                    18971.
 5 Upper-middle-income countries 17039.
 6 High-income countries         12516.
 7 OECD (GCP)                    11704.
 8 China                         11472.
 9 Asia (excl. China and India)   7507.
10 Lower-middle-income countries  6259.
# … with 250 more rows
…
