Projet Final - Importation
…
Manipulation des données

Données CO2

La base de données CO2 contient 46.523 observations regroupé en 74 variables. Cette base de données propose de mieux comprendre les sources d’énergies dans 207 pays.Pour obtenir une meilleure lecture et analyse des données, il est apparu plus simple de traiter la base de données CO2 avec quelques variables et non dans sa totalité. Au total, 18 sur 74 variables ont été sélectionnées.

La description de chacune de celles-ci sera expliqué dans le document exploration.

Code

#Transformation des données en tibble

as.tibble(dat_owid)

# A tibble: 46,523 × 74
   country      year iso_c…¹ popul…²   gdp cemen…³ cemen…⁴   co2 co2_g…⁵ co2_g…⁶
   <chr>       <dbl> <chr>     <dbl> <dbl>   <dbl>   <dbl> <dbl>   <dbl>   <dbl>
 1 Afghanistan  1850 AFG     3752993    NA      NA      NA    NA      NA      NA
 2 Afghanistan  1851 AFG     3769828    NA      NA      NA    NA      NA      NA
 3 Afghanistan  1852 AFG     3787706    NA      NA      NA    NA      NA      NA
 4 Afghanistan  1853 AFG     3806634    NA      NA      NA    NA      NA      NA
 5 Afghanistan  1854 AFG     3825655    NA      NA      NA    NA      NA      NA
 6 Afghanistan  1855 AFG     3844769    NA      NA      NA    NA      NA      NA
 7 Afghanistan  1856 AFG     3863976    NA      NA      NA    NA      NA      NA
 8 Afghanistan  1857 AFG     3883276    NA      NA      NA    NA      NA      NA
 9 Afghanistan  1858 AFG     3902671    NA      NA      NA    NA      NA      NA
10 Afghanistan  1859 AFG     3922160    NA      NA      NA    NA      NA      NA
# … with 46,513 more rows, 64 more variables: co2_including_luc <dbl>,
#   co2_including_luc_growth_abs <dbl>, co2_including_luc_growth_prct <dbl>,
#   co2_including_luc_per_capita <dbl>, co2_including_luc_per_gdp <dbl>,
#   co2_including_luc_per_unit_energy <dbl>, co2_per_capita <dbl>,
#   co2_per_gdp <dbl>, co2_per_unit_energy <dbl>, coal_co2 <dbl>,
#   coal_co2_per_capita <dbl>, consumption_co2 <dbl>,
#   consumption_co2_per_capita <dbl>, consumption_co2_per_gdp <dbl>, …
…
